[2022-1-25 12:20:10]  GET:/ 200 0.186ms
[2022-1-25 12:20:15]  GET:/ 200 0.003ms
[2022-1-25 12:20:34]  GET:/v1/api/books 200 0.003ms
[2022-1-25 12:20:54]  GET:/api/v1/books 200 0.003ms
[2022-1-25 12:21:0]  GET:/ 200 0.003ms
[2022-1-25 12:24:5]  GET:/ 200 0.034ms
[2022-1-25 12:26:31]  GET:/ 200 0.038ms
